06/16/2016 04:53:13 PM:  Retrieving credentials for concordance.
06/16/2016 04:53:13 PM:  Establishing a connection to concordance.
06/16/2016 04:53:13 PM:  Connection established on concordance.
06/16/2016 04:53:13 PM:  Client name set to: "mpitcher"
06/16/2016 04:53:13 PM:  Creating a table named ipid_mpitcher.
06/16/2016 04:53:13 PM:  Creation of ipid_mpitcher complete.
06/16/2016 04:53:13 PM:  Retrieving credentials for mpitcher.
06/16/2016 04:53:14 PM:  Opening FTP connection.
06/16/2016 04:53:14 PM:  FTP connection is open, retrieving data...
06/16/2016 04:53:14 PM:  Data retrieved, closing FTP connection...
06/16/2016 04:53:14 PM:  FTP: mpitcher - connection has been closed.
06/16/2016 04:53:14 PM:  Checking file size...
06/16/2016 04:53:15 PM:  File size has been checked, loading data into the table...
06/16/2016 04:53:15 PM:  Data has been loaded into ipid_mpitcher
06/16/2016 04:53:15 PM:  Checking file size...
06/16/2016 04:53:15 PM:  File size has been checked, loading data into the table...
06/16/2016 04:53:16 PM:  Data has been loaded into ipid_mpitcher
06/16/2016 04:53:16 PM:  Checking file size...
06/16/2016 04:53:16 PM:  File size has been checked, loading data into the table...
06/16/2016 04:53:17 PM:  Data has been loaded into ipid_mpitcher
06/16/2016 04:53:17 PM:  Creating load directory...
06/16/2016 04:53:17 PM:  Load directory created.
06/16/2016 04:53:17 PM:  Renaming file...
06/16/2016 04:53:17 PM:  Files have been renamed.
06/16/2016 04:53:17 PM:  Database: concordance - connection has been closed.
06/16/2016 04:53:17 PM:  Storing log file.
